Maryland’s 2023 Loss to Illinois was a Fluke? Locksley’s Late Playcall Wasn’t as Bad as We Think – Sports Data Analysis Blog
…
Code

third_and_six <- seasons|> filter(down == "3", distance == "6")

There have been 15,661 times that this exact scenario has occured since 2019. We can look further into that and learn about what has happened on these plays, by using the group_by and summarize functions.

Code

third_and_six |> group_by(play_type) |> 
  summarize(
    count = n()
  ) |>
arrange(desc(count))

# A tibble: 22 × 2
   play_type                  count
   <chr>                      <int>
 1 Pass Reception              4676
 2 Pass Incompletion           3866
 3 Rush                        3173
 4 Penalty                     1068
 5 Timeout                      929
 6 Sack                         800
 7 Passing Touchdown            496
 8 Interception Return          257
 9 Rushing Touchdown            135
10 Fumble Recovery (Opponent)   101
# ℹ 12 more rows
…
Honestly, I’m surprised. I guess defenses were surprised as well. Of the 1 in every 5 or so times a run is called, it is expected to be successful in getting a first down (by this measure). We’re still not quite at a conclusion yet, though. We want to gather some more information first.

First, who is leading the pack in run calls on third and six?

Code

third_and_six |> group_by(pos_team) |> filter(rush == "1") |>
  summarise(
    runcalls = n()
  ) |>
arrange(desc(runcalls))

# A tibble: 280 × 2
   pos_team         runcalls
   <chr>               <int>
 1 Navy                   60
 2 Army                   51
 3 Air Force              42
 4 Georgia Southern       35
 5 New Mexico             32
 6 Ole Miss               31
 7 Kent State             30
 8 Baylor                 29
 9 Georgia Tech           29
10 Louisiana              29
# ℹ 270 more rows
…
To do more analysis, we need to just use “regular” plays - ie. we don’t need to include field goals, timeouts, etc.). With the above summary, we have figured out every play type so we know what to select/filter by (done below):

Code

third_and_six_md <- third_and_six |> filter(pos_team == "Maryland", play_type %in% c("Rush", "Rushing Touchdown", "Pass Incompletion", "Pass Reception", "Passing Touchdown", "Sack"))

third_and_six_md_gains <- third_and_six_md |> select(year, week, def_pos_team, yards_gained, play_type, clock.minutes, period, yards_to_goal, rush)
third_and_six_md_gains

────────────────────────────────────────────────────────────── cfbfastR 1.9.5 ──

# A tibble: 60 × 9
    year  week def_pos_team yards_gained play_type         clock.minutes period
   <int> <int> <chr>               <dbl> <chr>                     <int>  <int>
 1  2019     1 Howard                  3 Rush                          7      3
 2  2019     2 Syracuse                7 Pass Reception                6      3
 3  2019     5 Penn State             18 Pass Reception               15      4
 4  2019     9 Minnesota              -7 Sack                         10      1
 5  2020     8 Northwestern            0 Pass Incompletion             8      2
 6  2020     9 Minnesota               5 Pass Reception               10      2
 7  2020     9 Minnesota              15 Pass Reception               10      4
 8  2020     9 Minnesota             -16 Sack                          7      4
 9  2020    10 Penn State             62 Passing Touchdown             0      1
10  2020    10 Penn State              7 Pass Reception                6      2
# ℹ 50 more rows
# ℹ 2 more variables: yards_to_goal <dbl>, rush <dbl>
…
